A Clinical Prediction Model for ICU Mortality
…
heart_rate <- chartevents %>%
  filter(ITEMID %in% c(211, 220045)) %>%
  select(SUBJECT_ID, HADM_ID, ICUSTAY_ID, CHARTTIME, VALUENUM) %>%
  group_by(SUBJECT_ID, HADM_ID, ICUSTAY_ID) %>%
  summarise(max_heart_rate = max(VALUENUM, na.rm = TRUE)) 
#Lowest blood pressure
d_items %>%
  filter(str_detect(LABEL, pattern =  regex("diastolic(blood pressure)?|NBP|Arterial BP", ignore_case = TRUE))) %>%
  print()

## # A tibble: 37 x 10
##    ROW_ID ITEMID LABEL ABBREVIATION DBSOURCE LINKSTO CATEGORY UNITNAME
##     <int>  <int> <chr> <chr>        <chr>    <chr>   <chr>    <chr>   
##  1   4907   8444 Orth <NA>         carevue  charte <NA>     <NA>    
##  2    420    456 NBP  <NA>         carevue  charte <NA>     <NA>    
##  3   4953   8502 BP C <NA>         carevue  charte <NA>     <NA>    
##  4   4827   8364 ABP  <NA>         carevue  charte <NA>     <NA>    
##  5   4831   8368 Arte <NA>         carevue  charte <NA>     <NA>    
##  6   4908   8445 Orth <NA>         carevue  charte <NA>     <NA>    
##  7   4326   6702 Arte <NA>         carevue  charte <NA>     <NA>    
##  8   4325   6701 Arte <NA>         carevue  charte <NA>     <NA>    
##  9   4956   8505 BP P <NA>         carevue  charte <NA>     <NA>    
## 10   4957   8506 BP R <NA>         carevue  charte <NA>     <NA>    
## #  with 27 more rows, and 2 more variables: PARAM_TYPE <chr>, CONCEPTID <int>
…
